<svg width="17" height="17" viewBox="0 0 17 17" fill="none" xmlns="http://www.w3.org/2000/svg">
<path d="M16.7463 1.74538L10.0978 8.39389L9.9917 8.49996L10.0978 8.60603L16.7463 15.2545L15.2547 16.7462L8.60615 10.0976L8.50008 9.99158L8.39402 10.0976L1.7455 16.7462L0.25388 15.2545L6.9024 8.60603L7.00846 8.49996L6.9024 8.39389L0.25388 1.74538L1.7455 0.253758L8.39402 6.90228L8.50008 7.00834L8.60615 6.90228L15.2547 0.253758L16.7463 1.74538Z" fill="white" stroke="#0D0D0D" stroke-width="0.3"/>
</svg>
